{
  "dev": {
    "awscloudformation": {
      "AuthRoleName": "amplify-vadrouillefrontprofe-dev-141207-authRole",
      "UnauthRoleArn": "arn:aws:iam::497736244504:role/amplify-vadrouillefrontprofe-dev-141207-unauthRole",
      "AuthRoleArn": "arn:aws:iam::497736244504:role/amplify-vadrouillefrontprofe-dev-141207-authRole",
      "Region": "eu-west-1",
      "DeploymentBucketName": "amplify-vadrouillefrontprofe-dev-141207-deployment",
      "UnauthRoleName": "amplify-vadrouillefrontprofe-dev-141207-unauthRole",
      "StackName": "amplify-vadrouillefrontprofe-dev-141207",
      "StackId": "arn:aws:cloudformation:eu-west-1:497736244504:stack/amplify-vadrouillefrontprofe-dev-141207/94d3ece0-d123-11ec-85fe-0229aac6e1f7",
      "AmplifyAppId": "d1kgjth3rq0aq4"
    },
    "categories": {
      "auth": {
        "vadrouillefrontprofecaec46ed": {}
      },
      "hosting": {
        "amplifyhosting": {
          "appId": "d1kgjth3rq0aq4",
          "type": "manual"
        }
      }
    }
  }
}